{
    "default_hs_url": "https://im.deuxfleurs.fr",
    "default_is_url": "https://vector.im",
    "disable_custom_urls": false,
    "disable_guests": false,
    "disable_login_language_selector": false,
    "disable_3pid_login": false,
    "brand": "Deuxfleurs",
    "integrations_ui_url": "https://scalar.vector.im/",
    "integrations_rest_url": "https://scalar.vector.im/api",
    "integrations_jitsi_widget_url": "https://scalar.vector.im/api/widgets/jitsi.html",
    "bug_report_endpoint_url": "https://riot.im/bugreports/submit",
    "features": {
        "feature_groups": "labs",
        "feature_pinning": "labs"
    },
    "default_federate": true,
    "welcomePageUrl": "home.html",
    "default_theme": "light",
    "roomDirectory": {
        "servers": [ "im.deuxfleurs.fr", "matrix.org" ]
    }
}
